{
    "name": "sdelano-nammi",
    "default_attributes": {
        "sentry": {
            "dsn": ""
        }
    },
    "json_class": "Chef::Role",
    "env_run_lists": {
    },
    "run_list": [
    ],
    "description": "sdelano-nammi",
    "chef_type": "role",
    "override_attributes": {
    }
}