{
    "dependencies": {
        "apt": ">= 0.0.0",
        "sudo": ">= 0.0.0"
    },
    "name": "services",
    "maintainer_email": "darkair2@gmail.com",
    "attributes": {},
    "license": "All rights reserved",
    "suggestions": {},
    "platforms": {},
    "maintainer": "darkair",
    "long_description": "",
    "version": "0.0.1",
    "recommendations": {},
    "recipes": {},
    "groupings": {},
    "conflicting": {},
    "replacing": {},
    "description": "Configures mfc applications",
    "providing": {}
}